<?xml version="1.0" encoding="UTF-8" standalone="no"?>
<svg
   xmlns:dc="http://purl.org/dc/elements/1.1/"
   xmlns:cc="http://creativecommons.org/ns#"
   xmlns:rdf="http://www.w3.org/1999/02/22-rdf-syntax-ns#"
   xmlns:svg="http://www.w3.org/2000/svg"
   xmlns="http://www.w3.org/2000/svg"
   xmlns:sodipodi="http://sodipodi.sourceforge.net/DTD/sodipodi-0.dtd"
   xmlns:inkscape="http://www.inkscape.org/namespaces/inkscape"
   height="643.32318"
   viewBox="0 0 65.337511 76.645926"
   width="643.32318"
   version="1.1"
   id="svg35"
   sodipodi:docname="socks_circle.svg"
   inkscape:version="1.0.1 (3bc2e813f5, 2020-09-07)"
   inkscape:export-filename="/home/rux/projects/socks/socks_circle.png"
   inkscape:export-xdpi="155.22"
   inkscape:export-ydpi="155.22">
  <metadata
     id="metadata41">
    <rdf:RDF>
      <cc:Work
         rdf:about="">
        <dc:format>image/svg+xml</dc:format>
        <dc:type
           rdf:resource="http://purl.org/dc/dcmitype/StillImage" />
        <dc:title />
      </cc:Work>
    </rdf:RDF>
  </metadata>
  <defs
     id="defs39" />
  <sodipodi:namedview
     pagecolor="#ffffff"
     bordercolor="#666666"
     borderopacity="1"
     objecttolerance="10"
     gridtolerance="10"
     guidetolerance="10"
     inkscape:pageopacity="0"
     inkscape:pageshadow="2"
     inkscape:window-width="2560"
     inkscape:window-height="1355"
     id="namedview37"
     showgrid="false"
     inkscape:zoom="1.3921165"
     inkscape:cx="159.80542"
     inkscape:cy="260.62736"
     inkscape:window-x="1920"
     inkscape:window-y="0"
     inkscape:window-maximized="1"
     inkscape:current-layer="svg35"
     fit-margin-top="5"
     fit-margin-left="5"
     fit-margin-right="5"
     fit-margin-bottom="5"
     inkscape:document-rotation="0" />
  <circle
     style="fill:#ff9d0d;fill-opacity:1;fill-rule:evenodd;stroke-width:0.119141"
     id="path46"
     cx="32.756645"
     cy="38.322964"
     r="37.727261" />
  <g
     id="091---Socks"
     fill="none"
     fill-rule="evenodd"
     transform="translate(6.7371317,7.7464228)">
    <g
       id="Icons"
       transform="translate(1)">
      <path
         id="Shape"
         d="m 49,36.06 c -2.78e-4,3.661377 -1.793332,7.090592 -4.8,9.18 -0.69,0.48 -1.38,1 -2.06,1.48 -1.72,1.28 -3.386667,2.613333 -5,4 l -7.09,6 -0.18,0.15 c -1.525068,1.368428 -3.500996,2.126757 -5.55,2.13 -0.500107,0.0035 -0.999291,-0.04344 -1.49,-0.14 -1.920694,-0.342409 -3.657288,-1.356013 -4.9,-2.86 -0.286577,-0.341254 -0.544139,-0.705855 -0.77,-1.09 3.822516,-3.431343 7.828405,-6.652745 12,-9.65 3.02766,-2.084521 4.837199,-5.52414 4.84,-9.2 0,-2.15 0.23,-0.85 -8.61,-31.24 L 36.39,1.59 38.23,1 C 38.491297,0.9170523 38.775188,0.9450154 39.01528,1.077349 39.255371,1.2096832 39.430606,1.4347819 39.5,1.7 l 2,7 1.17,4 4.77,16.44 1.14,3.86 c 0.278781,0.996097 0.420089,2.025627 0.42,3.06 z"
         fill="#9e9e9e"
         fill-rule="nonzero" />
      <path
         id="path3"
         d="m 46,36.06 c -2.78e-4,3.661377 -1.793332,7.090592 -4.8,9.18 -4.88,3.39 -8.51,6.68 -14.2,11.52 -1.170716,1.081077 -2.623261,1.809083 -4.19,2.1 -2.374345,-0.416405 -4.446759,-1.852841 -5.67,-3.93 3.822516,-3.431343 7.828405,-6.652745 12,-9.65 3.041081,-2.084049 4.859256,-5.533344 4.86,-9.22 0,-2.15 0.23,-0.85 -8.61,-31.24 l 11,-3.23 C 36.46,1.7 36.27,1.12 39.65,12.76 46,34.44 46,34 46,36.06 Z"
         fill="#cfd8dc"
         fill-rule="nonzero" />
      <path
         id="path5"
         d="M 22.89,9.75 V 9.74"
         stroke="#000000"
         stroke-linecap="round"
         stroke-linejoin="round"
         stroke-width="2" />
      <g
         fill-rule="nonzero"
         id="g29">
        <path
           id="path7"
           d="M 28.84,16.68 42.69,12.74 41.53,8.71 27.67,12.65 Z"
           fill="#c81e1e" />
        <path
           id="path9"
           d="m 30,56.76 -0.18,0.15 c -1.68689,1.479863 -3.898964,2.217502 -6.136433,2.046257 C 21.446097,58.785013 19.37204,57.719335 17.93,56 c -0.286577,-0.341254 -0.544139,-0.705855 -0.77,-1.09 3,-2.6 5.22,-4.48 7.36,-6.19 2.121574,2.445665 3.950602,5.130477 5.45,8 z"
           fill="#c81e1e" />
        <path
           id="path11"
           d="m 49,36.06 c -2.78e-4,3.661377 -1.793332,7.090592 -4.8,9.18 -0.69,0.48 -1.38,1 -2.06,1.48 -1.376611,-1.718011 -2.270608,-3.771788 -2.59,-5.95 -0.56,-5.35 3.38,-9.44 7.91,-11.59 L 48.58,33 c 0.278781,0.996097 0.420089,2.025627 0.42,3.06 z"
           fill="#c81e1e" />
        <path
           id="path13"
           d="m 34,36.06 c -2.78e-4,3.661377 -1.793332,7.090592 -4.8,9.18 -4.77,3.33 -7.6,5.91 -14.36,11.67 C 11.551144,60.104967 6.2949673,60.028856 3.1,56.74 -0.09496728,53.451144 -0.01885569,48.194967 3.27,45 L 13.89,34 c 0.261944,-0.261399 0.358116,-0.646086 0.25,-1 L 7.14,6.78 C 7.0695164,6.5240602 7.1036928,6.2505976 7.2349974,6.0198766 7.3663021,5.7891555 7.5839583,5.6201124 7.84,5.55 L 23.23,1 C 23.491296,0.9170523 23.775188,0.9450154 24.01528,1.077349 24.255371,1.2096832 24.430606,1.4347819 24.5,1.7 34.24,35.3 34,33.84 34,36.06 Z"
           fill="#cfd8dc" />
        <path
           id="path15"
           d="m 31,36.06 c -2.78e-4,3.661377 -1.793332,7.090592 -4.8,9.18 -4.77,3.33 -7.6,5.91 -14.36,11.67 -1.124648,1.020938 -2.5084602,1.712844 -4,2 C 4.8100567,58.401093 2.3119745,56.254416 1.3530009,53.335527 0.39402739,50.416639 1.1322457,47.206705 3.27,45 L 13.89,34 c 0.261944,-0.261399 0.358116,-0.646086 0.25,-1 L 7.14,6.78 C 7.0695164,6.5240602 7.1036928,6.2505976 7.2349974,6.0198766 7.3663021,5.7891555 7.5839583,5.6201124 7.84,5.55 l 13.63,-4 c 0.02927,0.054035 0.05274,0.1110201 0.07,0.17 C 31.24,35.3 31,33.84 31,36.06 Z"
           fill="#f5f5f5" />
        <path
           id="path17"
           d="M 27.69,12.74 10.04,17.76 9.89,17.2 8.96,13.71 l 14.77,-4.2 2.8,-0.8 z"
           fill="#c81e1e" />
        <path
           id="path19"
           d="M 24.73,12.98 9.89,17.2 8.96,13.71 23.73,9.51 Z"
           fill="#f44335" />
        <path
           id="path21"
           d="m 34,36.06 c -2.78e-4,3.661377 -1.793332,7.090592 -4.8,9.18 -0.69,0.48 -1.38,1 -2.06,1.48 -0.361043,-0.467097 -0.694927,-0.954568 -1,-1.46 -0.860672,-1.360766 -1.41357,-2.893182 -1.62,-4.49 -0.45,-4.3 2,-7.78 5.34,-10.1 0.812493,-0.569228 1.672311,-1.067721 2.57,-1.49 L 33.58,33 c 0.278781,0.996097 0.420089,2.025627 0.42,3.06 z"
           fill="#c81e1e" />
        <path
           id="path23"
           d="m 31,36.06 c -2.78e-4,3.661377 -1.793332,7.090592 -4.8,9.18 -0.860672,-1.360766 -1.41357,-2.893182 -1.62,-4.49 -0.45,-4.3 2,-7.78 5.34,-10.1 L 30.58,33 c 0.278781,0.996097 0.420089,2.025627 0.42,3.06 z"
           fill="#f44335" />
        <path
           id="path25"
           d="m 15,56.76 -0.18,0.15 C 13.13311,58.389863 10.921036,59.127502 8.6835665,58.956257 6.4460975,58.785013 4.3720399,57.719335 2.93,56 0.23765995,52.777578 0.38378531,48.049993 3.27,45 l 0.44,-0.46 c 3.6039555,2.053153 6.697602,4.893839 9.05,8.31 0.852355,1.236372 1.601548,2.540771 2.24,3.9 z"
           fill="#c81e1e" />
        <path
           id="path27"
           d="m 14,55.18 -0.18,0.15 C 12.13469,56.818585 9.9196971,57.563574 7.6773594,57.39601 5.4350218,57.228447 3.3553527,56.162531 1.91,54.44 V 54.37 C 0.33839404,51.272981 0.88276624,47.522417 3.27,45 l 0.44,-0.46 c 3.6039555,2.053153 6.697602,4.893839 9.05,8.31 0.454332,0.750711 0.868255,1.525147 1.24,2.32 z"
           fill="#f44335" />
      </g>
    </g>
    <path
       id="path32"
       d="M 41.46,1.47 C 41.16357,0.4076015 40.063,-0.21426499 39,0.08 L 27.07,3.56 C 26.45,1.41 26.42,0.76 25.5,0.25 25.041404,-4.3637e-4 24.50301,-0.06145443 24,0.08 L 8.52,4.6 C 7.4626052,4.8965418 6.8421123,5.9902163 7.13,7.05 l 7,26.23 L 3.54,44.35 C -0.1382163,47.939851 -0.20985068,53.831783 3.3800001,57.51 6.969851,61.188216 12.861783,61.259851 16.54,57.67 L 18,56.41 c 1.586877,2.018187 3.933075,3.295962 6.489343,3.534194 C 27.045611,60.182426 29.587519,59.3602 31.52,57.67 38.29,51.84 40.76,49.57 45.8,46.06 50.081227,43.106437 52.000648,37.750569 50.57,32.75 42.4,4.07 59.2,63.94 41.46,1.47 Z M 11.19,14.4 26.84,10 27.45,12.1 11.76,16.52 Z M 29.91,13.34 41.84,10 42.45,12.1 30.52,15.5 Z M 39.54,2 41.28,8 29.35,11.4 C 29.28,11.17 27.55,5.19 27.63,5.46 Z m -15,0 c 0.88,3 -1.09,-3.78 1.74,6 l -15.61,4.47 -1.59,-6 C 25.2,1.8 24.44,2 24.54,2 Z M 16.11,32.75 12.28,18.45 28,14 32.26,28.68 c -7.19,3.79 -10.2,10.83 -5.5,17.86 -3.39,2.56 -6,4.9 -10.44,8.66 -2.335288,-4.41254 -5.782331,-8.138793 -10,-10.81 l 9.31,-9.71 c 0.482246,-0.517443 0.663675,-1.246939 0.48,-1.93 z M 28.39,45.34 C 24.52,39.49 26.91,34 32.84,30.63 l 0.78,2.68 c 1.163721,4.177095 -0.440696,8.633364 -4,11.11 -0.41,0.3 -0.82,0.58 -1.23,0.92 z M 9.77,58 C 6.9866162,57.810621 4.5571002,56.04516 3.5173149,53.45635 2.4775295,50.86754 3.0108941,47.91205 4.89,45.85 c 4.2102919,2.566111 7.626799,6.249154 9.87,10.64 -1.421211,1.099527 -3.197612,1.637075 -4.99,1.51 z m 9.72,-2.87 c 3.27,-2.76 2.49,-2.17 5.8,-4.87 1.779762,1.865216 3.281826,3.976861 4.46,6.27 -1.548476,1.173318 -3.499871,1.682934 -5.424323,1.416587 C 22.401226,57.68024 20.661595,56.65978 19.49,55.11 Z m 11.82,0.08 C 30.106129,52.950861 28.60623,50.862437 26.85,49 c 1.28,-1 2.59,-2 3.93,-2.92 4.258013,-2.966581 6.168721,-8.305325 4.76,-13.3 L 31.08,17.37 43,14 47.26,28.69 C 40.1,32.46 37.04,39.49 41.76,46.55 37.82,49.5 36.28,51 31.31,55.19 Z M 44.63,44.42 c -0.42,0.29 -0.83,0.6 -1.25,0.9 -3.83,-5.8 -1.51,-11.31 4.46,-14.69 l 0.78,2.67 c 1.173665,4.178136 -0.427733,8.641178 -3.99,11.12 z"
       fill="#000000"
       fill-rule="nonzero" />
  </g>
</svg>
